<?xml version="1.0" encoding="utf-8"?>
<!-- Generator: Adobe Illustrator 26.0.3, SVG Export Plug-In . SVG Version: 6.00 Build 0)  -->
<svg version="1.1" id="Calque_1" xmlns="http://www.w3.org/2000/svg" xmlns:xlink="http://www.w3.org/1999/xlink" x="0px" y="0px"
	 viewBox="0 0 24 24" enable-background="new 0 0 24 24" xml:space="preserve">
<path fill="#767486" d="M4.5,20.3c-0.2,0-0.4-0.1-0.6-0.2c-0.2-0.2-0.3-0.6-0.2-0.9l1.5-4.4c-0.5-1-0.7-2.1-0.7-3.2
	c0-3,1.7-5.7,4.4-7.1C10,4,11.2,3.6,12.4,3.7h0.4c4.1,0.2,7.3,3.4,7.5,7.5v0.5c0,1.2-0.3,2.5-0.8,3.5c-1.4,2.7-4.1,4.4-7.1,4.4
	c-1.1,0-2.2-0.2-3.2-0.7l-4.4,1.5C4.7,20.3,4.6,20.3,4.5,20.3z M12.4,5.3c-1,0-1.9,0.2-2.8,0.7c-2.1,1.1-3.4,3.2-3.4,5.6
	c0,1,0.2,1.9,0.7,2.8C7,14.6,7,14.8,6.9,15l-1.1,3.2L9,17.1c0.2-0.1,0.4-0.1,0.6,0c0.9,0.4,1.8,0.7,2.8,0.7c2.4,0,4.5-1.3,5.6-3.5
	c0.4-0.9,0.7-1.8,0.7-2.8v-0.3C18.5,8,16,5.5,12.8,5.3H12.4z"/>
</svg>
